<?xml version="1.0" encoding="utf-8"?>
<!-- Generator: Adobe Illustrator 22.0.0, SVG Export Plug-In . SVG Version: 6.00 Build 0)  -->
<svg version="1.1" id="Layer_1" xmlns="http://www.w3.org/2000/svg" xmlns:xlink="http://www.w3.org/1999/xlink" x="0px" y="0px"
	 viewBox="0 0 87 87" style="enable-background:new 0 0 87 87;" xml:space="preserve">
<style type="text/css">
	.st0{fill:#FF0000;}
</style>
<g id="used_icons">
	<g id="_x33_60">
		<path class="st0" d="M72.1,25.5v3.5c5.9,3.4,9.5,7.8,9.5,12.6c0,8-9.9,14.9-23.8,17.7v8.8c16.8-3.4,28.9-12.8,28.9-23.8
			C86.4,36.9,80.9,30.2,72.1,25.5z"/>
		<path class="st0" d="M28.8,59.4c-14-2.8-23.8-9.7-23.8-17.7c0-4.8,3.6-9.2,9.5-12.6v-3.5C5.6,30.1,0,36.8,0,44.3
			c0,11,12.1,20.3,28.9,23.8v8.7l18-12.6L28.8,51.6V59.4z"/>
		<g>
			<path class="st0" d="M63.1,15.6h-8.9l-3.9-3.9c-1.1-1.1-2.3-1.5-3.9-1.5H40c-1.4,0-2.8,0.6-3.9,1.5l-3.9,3.9h-9
				c-2.9,0-5.4,2.5-5.4,5.4v21.6c0,2.9,2.5,5.4,5.4,5.4h39.8c2.9,0,5.4-2.5,5.4-5.4V21C68.5,18,66,15.6,63.1,15.6z M43.2,41.3
				c-6.2,0-11.3-5-11.3-11.3s5-11.3,11.3-11.3s11.3,5,11.3,11.3S49.4,41.3,43.2,41.3z"/>
			<circle class="st0" cx="43.2" cy="30" r="7.2"/>
		</g>
	</g>
</g>
</svg>
