<?xml version="1.0" encoding="utf-8"?>
<!-- Generator: Adobe Illustrator 20.0.0, SVG Export Plug-In . SVG Version: 6.00 Build 0)  -->
<svg version="1.1" id="Layer_1" xmlns="http://www.w3.org/2000/svg" xmlns:xlink="http://www.w3.org/1999/xlink" x="0px" y="0px"
	 viewBox="0 0 60 60" style="enable-background:new 0 0 60 60;" xml:space="preserve">
<path id="Facebook_2_" d="M33.4,51.8V31.9H40l1-7.7h-7.7v-4.9c0-2.2,0.6-3.8,3.8-3.8l4.1,0V8.6c-0.7-0.1-3.1-0.3-6-0.3
	c-5.9,0-9.9,3.6-9.9,10.2v5.7h-6.7v7.7h6.7v19.8L33.4,51.8L33.4,51.8z"/>
</svg>
