<?xml version="1.0" encoding="utf-8"?>
<!-- Generator: Adobe Illustrator 21.1.0, SVG Export Plug-In . SVG Version: 6.00 Build 0)  -->
<svg version="1.1" id="Layer_1" xmlns="http://www.w3.org/2000/svg" xmlns:xlink="http://www.w3.org/1999/xlink" x="0px" y="0px"
	 viewBox="0 0 501 471" style="enable-background:new 0 0 501 471;" xml:space="preserve">
<style type="text/css">
	.st0{display:none;}
	.st1{display:inline;fill:#1F2732;}
	.st2{display:inline;}
	.st3{fill:#1F2732;}
</style>
<g class="st0">
	<rect x="42.9" y="148.8" class="st1" width="29.1" height="270.3"/>
	<rect x="429" y="233.5" class="st1" width="29.1" height="185.5"/>
	<g class="st2">
		<g>
			<rect x="83.2" y="285.8" class="st3" width="334.6" height="95.2"/>
			<g>
				<rect x="83.2" y="392.2" class="st3" width="334.6" height="11.2"/>
			</g>
		</g>
		<path class="st3" d="M199.2,265c0-14.6-12-26.6-26.6-26.6H84.1c-0.3,0-0.6,0.1-0.9,0.1v36.1h116V265z"/>
	</g>
</g>
<g class="st0">
	<polygon class="st1" points="112.6,244 112.6,419.1 145.8,419.1 145.8,385.8 145.8,385.8 145.8,266.6 250.5,225.1 355.2,266.6 
		355.2,385.8 355.2,385.8 355.2,419.1 388.4,419.1 388.4,244 250.5,189.3 	"/>
	<path class="st1" d="M451.1,234.4l-200.6-79.6L49.9,234.4c-5.4,2.1-8,8.2-5.9,13.6c2.1,5.4,8.2,8,13.6,5.9l192.9-76.5l192.9,76.5
		c5.4,2.1,11.5-0.5,13.6-5.9C459.2,242.6,456.5,236.5,451.1,234.4z"/>
	<g class="st2">
		<g>
			<path class="st3" d="M198.8,407.5c0,6.4,5.2,11.5,11.5,11.5c6.4,0,11.5-5.2,11.5-11.5v-17.2h-23.1v17.2H198.8z"/>
			<path class="st3" d="M279.1,407.5c0,6.4,5.2,11.5,11.5,11.5s11.5-5.2,11.5-11.5v-17.2H279v17.2H279.1z"/>
		</g>
		<polygon class="st3" points="215.9,308.6 230.4,308.6 270.6,308.6 285.1,308.6 285.1,329.5 295.6,329.5 295.6,308.6 295.6,294.5 
			285.1,294.5 215.9,294.5 205.4,294.5 205.4,308.6 205.4,329.5 215.9,329.5 		"/>
		<path class="st3" d="M186.4,340.5v38.7h12.5H222h57.2h23.1h12.5v-38.7H186.4z M210.5,368.2c-4.6,0-8.3-3.7-8.3-8.3
			c0-4.6,3.7-8.3,8.3-8.3s8.3,3.7,8.3,8.3S215.1,368.2,210.5,368.2z M231.1,368.8h-2.8V351h2.8V368.8z M245,368.8h-2.8V351h2.8
			V368.8z M258.8,368.8H256V351h2.8V368.8z M272.6,368.8h-2.8V351h2.8V368.8z M290.5,368.2c-4.6,0-8.3-3.7-8.3-8.3
			c0-4.6,3.7-8.3,8.3-8.3c4.6,0,8.3,3.7,8.3,8.3S295.1,368.2,290.5,368.2z"/>
	</g>
</g>
<g class="st0">
	<path class="st1" d="M435.4,273.1H65.6c-12.5,0-22.6,10.1-22.6,22.6s10.1,22.6,22.6,22.6h369.8c12.5,0,22.6-10.1,22.6-22.6
		S447.9,273.1,435.4,273.1z"/>
	<path class="st1" d="M250.5,410.2c85.7,0,157.1-34.8,172.9-81H77.6C93.4,375.4,164.8,410.2,250.5,410.2z"/>
	<path class="st1" d="M122.7,400.1c-2.1,8,2.6,16.3,10.6,18.4s16.3-2.6,18.4-10.6l0.7-2.6c-9.9-3.6-19.2-7.7-27.8-12.3L122.7,400.1z
		"/>
	<path class="st1" d="M349.2,407.9c2.1,8,10.4,12.8,18.4,10.6c8-2.1,12.8-10.4,10.6-18.4l-1.9-7.1c-8.6,4.6-17.9,8.7-27.8,12.3
		L349.2,407.9z"/>
	<g class="st2">
		<g>
			<path class="st3" d="M341.1,246.3c0-6.1-5-11.1-11.1-11.1s-11.1,5-11.1,11.1V262h22.2V246.3z"/>
			<path class="st3" d="M426.4,246.3c0-6.1-5-11.1-11.1-11.1s-11.1,5-11.1,11.1V262h22.2V246.3z"/>
		</g>
		<g>
			<path class="st3" d="M328.9,190.2c0.8-8.3,7.7-14.6,16-14.6c8.9,0,16.2,7.3,16.2,16.2v59.4h-7.2V262h7.2h23.8h7.2v-10.9h-7.2
				v-59.4c0-22.1-17.9-40-40-40c-21.1,0-38.6,16.5-39.9,37.5l-0.4,5.9h23.7L328.9,190.2z"/>
		</g>
	</g>
</g>
<g>
	<path class="st3" d="M296.9,316.8c-6.9,0-12.7,1.7-12.7,7.4c0,14.6,10.3,24.4,18.9,24.4c7.6,0,12.4-6.5,12.4-13.8
		C315.5,326.1,310.2,316.8,296.9,316.8z"/>
	<path class="st3" d="M151.7,187.3c0,9.5-7.7,17.2-17.2,17.2l0,0c-9.5,0-17.2-7.7-17.2-17.2v-66.2c0-9.5,7.7-17.2,17.2-17.2l0,0
		c9.5,0,17.2,7.7,17.2,17.2V187.3z"/>
	<path class="st3" d="M383.6,187.3c0,9.5-7.7,17.2-17.2,17.2l0,0c-9.5,0-17.2-7.7-17.2-17.2v-66.2c0-9.5,7.7-17.2,17.2-17.2l0,0
		c9.5,0,17.2,7.7,17.2,17.2V187.3z"/>
	<path class="st3" d="M396.8,154.2v33.1c0,16.7-13.6,30.4-30.4,30.4S336,204.1,336,187.3v-33.1H164.9v33.1
		c0,16.7-13.6,30.4-30.4,30.4s-30.4-13.6-30.4-30.4v-33.1H42.9V471h415.3V154.2H396.8z M241.4,374.1h-81.9v-25.8h26.1v-51.2
		c0-4.6,0.2-9.5,0.2-9.5h-0.3c0,0-1.5,3.4-4.8,6.5l-7.4,6.7l-17.4-18.6l33.2-31.1h26v97.1h26.3L241.4,374.1L241.4,374.1z
		 M303.1,376.2c-24.8,0-49.9-18.7-49.9-58.8c0-33.4,20.5-68.3,58.6-68.3c17.2,0,27.2,5.3,27.2,5.3l-8.1,25.8c0,0-8.1-3.6-16.9-3.6
		c-14.4,0-22.7,8.9-26.5,20.3h0.3c2.9-2.1,11-4.3,16.9-4.3c25.6,0,40.2,21,40.2,42.1C345.1,355.5,329.8,376.2,303.1,376.2z"/>
</g>
<g class="st0">
	<path class="st1" d="M445,142.7l-13.1-19.5l-13.1,19.5l-13.1,19.5v23.2h-38.3v-23.2l-13.1-19.5l-13.1-19.5l-13.1,19.5L315,162.2
		v23.2h-38.3v-23.2l-13.1-19.5l-13.1-19.5l-13.1,19.5l-13.1,19.5v23.2H186v-23.2l-13.1-19.5l-13.1-19.5l-13.1,19.5l-13.1,19.5v23.2
		H95.3v-23.2l-13.1-19.5l-13.1-19.5L56,142.7l-13.1,19.5v256.9h52.4v-23.2h38.3v23.2H186v-23.2h38.3v23.2h52.4v-23.2H315v23.2h52.4
		v-23.2h38.3v23.2h52.4V162.2L445,142.7z M405.7,206.6V280h-38.3v-73.4H405.7z M315,206.6V280h-38.3v-73.4H315z M224.3,206.6V280
		H186v-73.4H224.3z M133.6,206.6V280H95.3v-73.4H133.6z M95.3,374.6v-73.4h38.3v73.4H95.3z M186,374.6v-73.4h38.3v73.4H186z
		 M276.7,374.6v-73.4H315v73.4H276.7z M367.4,374.6v-73.4h38.3v73.4H367.4z"/>
</g>
<g class="st0">
	<g class="st2">
		<rect x="65" y="239.5" class="st3" width="11.1" height="27.7"/>
	</g>
	<g class="st2">
		<rect x="87.2" y="239.5" class="st3" width="11.1" height="27.7"/>
	</g>
	<g class="st2">
		<rect x="109.3" y="239.5" class="st3" width="11.1" height="27.7"/>
	</g>
	<g class="st2">
		<rect x="131.5" y="239.5" class="st3" width="11.1" height="27.7"/>
	</g>
	<g class="st2">
		<rect x="153.6" y="239.5" class="st3" width="11.1" height="27.7"/>
	</g>
	<polygon class="st1" points="170.2,200.7 164.7,200.7 153.6,200.7 148.1,200.7 148.1,211.8 153.6,211.8 153.6,228.4 164.7,228.4 
		164.7,211.8 170.2,211.8 	"/>
	<g class="st2">
		<rect x="50.8" y="217.3" class="st3" width="113.9" height="11.1"/>
	</g>
	<polygon class="st1" points="293.9,289.4 458.1,289.4 458.1,278.4 293.9,278.4 282.8,278.4 282.8,289.4 282.8,326.2 282.8,342.8 
		277.3,342.8 277.3,353.9 282.8,353.9 293.9,353.9 299.4,353.9 299.4,342.8 293.9,342.8 293.9,326.2 	"/>
	<polygon class="st1" points="293.9,384.4 293.9,384.4 282.8,384.4 282.8,384.4 277.3,384.4 277.3,395.4 282.8,395.4 282.8,410 
		282.8,412 293.9,412 293.9,410 293.9,395.4 299.4,395.4 299.4,384.4 	"/>
	<polygon class="st1" points="383.5,217.3 383.5,211.8 389,211.8 389,200.7 383.5,200.7 372.4,200.7 366.9,200.7 366.9,211.8 
		372.4,211.8 372.4,217.3 372.4,228.4 383.5,228.4 451.3,228.4 451.3,217.3 	"/>
	<path class="st1" d="M42.9,148.8v129.6v11.1v129.6h415.3V148.8H42.9z M447.1,408H217.6v-12.6h5.8v-11.1h-5.8h-11.1h-5.3v11.1h5.3
		V408H53.9V289.4h152.6v53.4h-5.3v11.1h5.3h11.1h5.8v-11.1h-5.8v-53.4v-11.1h-11.1H53.9V159.8h94.2v10.5h5.5h2.7h5.8h2.7h5.5v-10.5
		H367v10.5h5.5h11.1h5.5v-10.5h58V408z"/>
</g>
</svg>
