<?xml version="1.0" encoding="utf-8"?>
<!-- Generator: Adobe Illustrator 22.0.0, SVG Export Plug-In . SVG Version: 6.00 Build 0)  -->
<svg version="1.1" id="Layer_1" xmlns="http://www.w3.org/2000/svg" xmlns:xlink="http://www.w3.org/1999/xlink" x="0px" y="0px"
	 viewBox="0 0 62 62" style="enable-background:new 0 0 62 62;" xml:space="preserve">
<style type="text/css">
	.st0{fill:none;stroke:#FF0000;stroke-width:3;stroke-linecap:round;stroke-linejoin:round;stroke-miterlimit:10;}
</style>
<g>
	<path class="st0" d="M14.7,47.3c0,0,0.5-5.6,2.5-8.4c2.5-3.6,5.8-5.5,5.8-5.5s2.8,3.3,8.6,3.3s7.8-3.8,7.8-3.8s4.5,3,6.3,6.7
		s1.6,7.5,1.6,7.5"/>
	<circle class="st0" cx="31.1" cy="23.3" r="8.7"/>
</g>
</svg>
